%YAML 1.1
%TAG !u! tag:unity3d.com,2011:
--- !u!1 &2754537955563564920
GameObject:
  m_ObjectHideFlags: 0
  m_CorrespondingSourceObject: {fileID: 0}
  m_PrefabInstance: {fileID: 0}
  m_PrefabAsset: {fileID: 0}
  serializedVersion: 6
  m_Component:
  - component: {fileID: 2754537955563564902}
  - component: {fileID: 2754537955563564921}
  - component: {fileID: 1276406063}
  m_Layer: 0
  m_Name: GameManager
  m_TagString: Untagged
  m_Icon: {fileID: 0}
  m_NavMeshLayer: 0
  m_StaticEditorFlags: 0
  m_IsActive: 1
--- !u!4 &2754537955563564902
Transform:
  m_ObjectHideFlags: 0
  m_CorrespondingSourceObject: {fileID: 0}
  m_PrefabInstance: {fileID: 0}
  m_PrefabAsset: {fileID: 0}
  m_GameObject: {fileID: 2754537955563564920}
  m_LocalRotation: {x: 0, y: 0, z: 0, w: 1}
  m_LocalPosition: {x: 0, y: 0, z: 0}
  m_LocalScale: {x: 1, y: 1, z: 1}
  m_Children: []
  m_Father: {fileID: 0}
  m_RootOrder: 0
  m_LocalEulerAnglesHint: {x: 0, y: 0, z: 0}
--- !u!114 &2754537955563564921
MonoBehaviour:
  m_ObjectHideFlags: 0
  m_CorrespondingSourceObject: {fileID: 0}
  m_PrefabInstance: {fileID: 0}
  m_PrefabAsset: {fileID: 0}
  m_GameObject: {fileID: 2754537955563564920}
  m_Enabled: 1
  m_EditorHideFlags: 0
  m_Script: {fileID: 11500000, guid: b4a4ae2b919237949b2ca86a987373ef, type: 3}
  m_Name: 
  m_EditorClassIdentifier: 
  ElapsedTimeText: {fileID: 0}
  EnemiesStoppedPanel: {fileID: 0}
  HpText: {fileID: 0}
  EggText: {fileID: 0}
  SpellCountTexts:
  - {fileID: 0}
  - {fileID: 0}
  SpellImages:
  - {fileID: 0}
  - {fileID: 0}
  GameOverPanel: {fileID: 0}
  GameOverMessage: {fileID: 0}
  WinPanel: {fileID: 0}
  WinText: {fileID: 0}
  FirstLevelStartScreen: {fileID: 0}
  Shop: {fileID: 0}
  LevelFinishPanel: {fileID: 0}
  SpellShopTexts:
  - {fileID: 0}
  - {fileID: 0}
  SpellShopButtons:
  - {fileID: 0}
  - {fileID: 0}
--- !u!114 &1276406063
MonoBehaviour:
  m_ObjectHideFlags: 0
  m_CorrespondingSourceObject: {fileID: 0}
  m_PrefabInstance: {fileID: 0}
  m_PrefabAsset: {fileID: 0}
  m_GameObject: {fileID: 2754537955563564920}
  m_Enabled: 1
  m_EditorHideFlags: 0
  m_Script: {fileID: 11500000, guid: aaa591c17b55d5747ae1933ce931058e, type: 3}
  m_Name: 
  m_EditorClassIdentifier: 
  WallPrefab: {fileID: 20031081549556009, guid: c06a4d7d4328e874983ee259aed5ea84,
    type: 3}
  FloorPrefab: {fileID: 3815009203644271481, guid: 4f0d8e7f85e33b04eb42fe028e748bba,
    type: 3}
  EnemyBombPrefab: {fileID: 8207337390898848221, guid: b7674adc5dadf0c4fbc9dc3e9cf652e3,
    type: 3}
  EnemyFlailPrefab: {fileID: 6520697984727046256, guid: 918f73d347dac6740b08421ee38b0813,
    type: 3}
  PlayerPrefab: {fileID: 963768244707552925, guid: 0b89584effda35b4ba302ae523111748,
    type: 3}
  EggPrefab: {fileID: 3970573195993357144, guid: fea3703ba2cbd2541a4ed1f69ed43321,
    type: 3}
  FinishPrefab: {fileID: 7966728185660876206, guid: ba0c6e4eac86c6b40ab7de1e4b8128a8,
    type: 3}
