%YAML 1.1
%TAG !u! tag:unity3d.com,2011:
--- !u!114 &11400000
MonoBehaviour:
  m_ObjectHideFlags: 0
  m_CorrespondingSourceObject: {fileID: 0}
  m_PrefabInstance: {fileID: 0}
  m_PrefabAsset: {fileID: 0}
  m_GameObject: {fileID: 0}
  m_Enabled: 1
  m_EditorHideFlags: 0
  m_Script: {fileID: 11500000, guid: 1b72f627700625842b92904652a82d11, type: 3}
  m_Name: TimeStopSpell
  m_EditorClassIdentifier: 
  Name: Time Freeze
  Description: Temporarily stops all moving objects.
  Cost: 10
  Cooldown: 9
  IgnoresGCD: 0
  Duration: 3.5
